{
    "boostnSlackNotifychannelName.json": {
        "hash": "4087fa6a651e6d26290d6117c16a54be"
    },
    "boostnSlackNotifyenableErrorLogReport.json": {
        "hash": "ac3c45a98a72d499b6d0b733d38036e2"
    },
    "boostnSlackNotifyenableErrorLogReportIcon.json": {
        "hash": "fb6debebd4918812f7288de01e4d7b6e"
    },
    "boostnSlackNotifyenableNewModeratedPost.json": {
        "hash": "5fe2682c27f0324dd2624e11c892d652"
    },
    "boostnSlackNotifyenableNewThreadreport.json": {
        "hash": "084c24f0d3a1e2f0f5987502b6ffa885"
    },
    "boostnSlackNotifyenableNewUserModerated.json": {
        "hash": "0c168fde578e7d0fffd4e875ed858727"
    },
    "boostnSlackNotifyenableNewUserReg.json": {
        "hash": "2c1bc7fbd390b90fded7283f0b58a5fc"
    },
    "boostnSlackNotifygeneral_icon.json": {
        "hash": "069ef8c930d6e1cee7c69e688b2cfa42"
    },
    "boostnSlackNotifyuserName.json": {
        "hash": "6bed455e28aa0685855a070e241c8cdd"
    },
    "boostnSlackNotifywebHook.json": {
        "hash": "76cc08dbd600fffc8f0c0339aea2fcae"
    }
}