{
    "XF-Service-Post-Preparer_BoostN-SlackNotify-XF-Service-Post-Preparer.json": {
        "hash": "d38b1a2707e77862184e4f619f84c6fe"
    },
    "XF-Service-Report-Creator_BoostN-SlackNotify-XF-Service-Report-Creator.json": {
        "hash": "dbf41531207bcab9491cedd68c08bd38"
    },
    "XF-Service-User-Registration_BoostN-SlackNotify-XF-Service-User-Registration.json": {
        "hash": "140ecb790fc81d516212f1d94ce96f18"
    }
}